{
    "schema": {
        "vendor": "com.hubspot.snowplow",
        "name": "email_events_updates",
        "format": "jsonschema",
        "version": "1-0-0"
    },
    "data": {
        "appName": "Batch",
        "smtpId": "<i59TrzgcR1KnpPCg7pC-0w@ismtpd0029p1iad2.sendgrid.net>",
        "response": "250 2.0.0 OK  1552659402 y7si1178806yby.124 - gsmtp ",
        "recipient": "akeunecke@gmail.com",
        "sentBy": {
            "id": "9606d4d2-a631-4aba-bb3d-933af07c71ec",
            "created": "2019-03-15T14:09:26Z"
        },
        "portalId": 3381861,
        "created": "2019-03-15T14:16:43Z",
        "id": "4b1864ac-dbb5-3fb9-94d1-56ac4e8265bc",
        "type": "DELIVERED",
        "appId": 113,
        "emailCampaignId": 70820631
    },
    "hierarchy": {
        "rootId": "4e56896b-9059-4548-8761-cd271f19556c",
        "rootTstamp": "2019-03-23 22:51:21.416",
        "refRoot": "events",
        "refTree": [
            "events",
            "email_events_updates"
        ],
        "refParent": "events"
    }
} {
    "schema": {
        "vendor": "com.hubspot.snowplow",
        "name": "email_events_updates",
        "format": "jsonschema",
        "version": "1-0-0"
    },
    "data": {
        "appName": "Batch",
        "recipient": "arthurcpdc@gmail.com",
        "portalId": 3381861,
        "emailCampaignId": 70820631,
        "appId": 113,
        "created": "2019-03-15T14:08:42Z",
        "id": "390d592d-069e-46a,