{
    "jsonpaths": [
        "$.schema.vendor",
        "$.schema.name",
        "$.schema.format",
        "$.schema.version",
        "$.hierarchy.rootId",
        "$.hierarchy.rootTstamp",
        "$.hierarchy.refRoot",
        "$.hierarchy.refTree",
        "$.hierarchy.refParent",
        "$.data.v",
        "$.data.meta.v",
        "$.data.meta.action",
        "$.data.meta.object",
        "$.data.meta.id",
        "$.data.meta.company_id",
        "$.data.meta.user_id",
        "$.data.meta.host",
        "$.data.meta.timestamp",
        "$.data.meta.timestamp_micro",
        "$.data.meta.trans_pending",
        "$.data.meta.is_bulk_update",
        "$.data.meta.webhook_id",
        "$.data.current",
        "$.data.previous",
        "$.data.event",
        "$.data.retry"
    ]
}